{
  "project_info": {
    "project_number": "1003804154726",
    "firebase_url": "https://iappintheair.firebaseio.com",
    "project_id": "iappintheair",
    "storage_bucket": "iappintheair.appspot.com"
  },
  "client": [
    {
      "client_info": {
        "mobilesdk_app_id": "1:1003804154726:android:3607b0da27c3a14a",
        "android_client_info": {
          "package_name": "com.aita"
        }
      },
      "oauth_client": [
        {
          "client_id": "1003804154726-5ophtnlde0eqi4kvel2nno9nk5p2n3u3.apps.googleusercontent.com",
          "client_type": 1,
          "android_info": {
            "package_name": "com.aita",
            "certificate_hash": "9C1B4548BFA0F0EC5097BEBF174D984C4007D370"
          }
        },
        {
          "client_id": "1003804154726-n02hsan7hps17f8tn862v87cojdp5eif.apps.googleusercontent.com",
          "client_type": 1,
          "android_info": {
            "package_name": "com.aita",
            "certificate_hash": "F37FD825C9E5ACA8F3A9AE9369FA40E7AD105565"
          }
        },
        {
          "client_id": "1003804154726-fgqnlv0qfala19l973q2dqo30cm4l8fa.apps.googleusercontent.com",
          "client_type": 1,
          "android_info": {
            "package_name": "com.aita",
            "certificate_hash": "3BDBEDFA7CDCBF0A13C5DE3D87FCD761BA9DBA61"
          }
        },
        {
          "client_id": "1003804154726-o9k547s1hbfbbn3j077r5sobbnlb6o7l.apps.googleusercontent.com",
          "client_type": 1,
          "android_info": {
            "package_name": "com.aita",
            "certificate_hash": "D202B622D6DBDBF785589BDC0226739A0FECCEA0"
          }
        },
        {
          "client_id": "1003804154726-jg3ql1ej3sr0vm214mmu2rerd8mkt2qq.apps.googleusercontent.com",
          "client_type": 1,
          "android_info": {
            "package_name": "com.aita",
            "certificate_hash": "26EE22AF97F58A442AE984C65D8CD692942AEFD7"
          }
        },
        {
          "client_id": "1003804154726-2ldrkg155n7jojjca9o5rcicciv5c6r1.apps.googleusercontent.com",
          "client_type": 1,
          "android_info": {
            "package_name": "com.aita",
            "certificate_hash": "16A79C08AC2E24D247295374F587473E4B33015F"
          }
        },
        {
          "client_id": "1003804154726-2utq21340e7i36u452ksdlcms9j1ujhn.apps.googleusercontent.com",
          "client_type": 1,
          "android_info": {
            "package_name": "com.aita",
            "certificate_hash": "DFF86E6938714A58DFD0658EFB34C9A04B489A64"
          }
        },
        {
          "client_id": "1003804154726-a7g147p2stu3qupvb3tg5jjek1ukh2c6.apps.googleusercontent.com",
          "client_type": 3
        },
        {
          "client_id": "1003804154726-vdqt1baa7tiraknveg82uhg3funvs58i.apps.googleusercontent.com",
          "client_type": 3
        },
        {
          "client_id": "1003804154726-shbfhqcu4a087qe2aoc3grk5t9fa2du9.apps.googleusercontent.com",
          "client_type": 3
        },
        {
          "client_id": "1003804154726-0m980subbbo6s3gmfohdl47tncda78c5.apps.googleusercontent.com",
          "client_type": 3
        }
      ],
      "api_key": [
        {
          "current_key": "AIzaSyDh_wMgsAKjGL34CqJWAIagW8s0A_JzweA"
        }
      ],
      "services": {
        "analytics_service": {
          "status": 2,
          "analytics_property": {
            "tracking_id": "UA-36159524-8"
          }
        },
        "appinvite_service": {
          "status": 2,
          "other_platform_oauth_client": [
            {
              "client_id": "1003804154726-a7g147p2stu3qupvb3tg5jjek1ukh2c6.apps.googleusercontent.com",
              "client_type": 3
            },
            {
              "client_id": "1003804154726-087j7fvffbppf79kc1h978t7a5spegf0.apps.googleusercontent.com",
              "client_type": 2,
              "ios_info": {
                "bundle_id": "com.aita.app",
                "app_store_id": "527299553"
              }
            }
          ]
        },
        "ads_service": {
          "status": 1
        }
      }
    },
    {
      "client_info": {
        "mobilesdk_app_id": "1:1003804154726:android:b5d75907de594a2d",
        "android_client_info": {
          "package_name": "com.google.firebase.codelab.friendlychat"
        }
      },
      "oauth_client": [
        {
          "client_id": "1003804154726-sah8401ue95lr5smt573r6iptnma01rs.apps.googleusercontent.com",
          "client_type": 1,
          "android_info": {
            "package_name": "com.google.firebase.codelab.friendlychat",
            "certificate_hash": "26EE22AF97F58A442AE984C65D8CD692942AEFD7"
          }
        },
        {
          "client_id": "1003804154726-a7g147p2stu3qupvb3tg5jjek1ukh2c6.apps.googleusercontent.com",
          "client_type": 3
        },
        {
          "client_id": "1003804154726-vdqt1baa7tiraknveg82uhg3funvs58i.apps.googleusercontent.com",
          "client_type": 3
        },
        {
          "client_id": "1003804154726-shbfhqcu4a087qe2aoc3grk5t9fa2du9.apps.googleusercontent.com",
          "client_type": 3
        },
        {
          "client_id": "1003804154726-0m980subbbo6s3gmfohdl47tncda78c5.apps.googleusercontent.com",
          "client_type": 3
        }
      ],
      "api_key": [],
      "services": {
        "analytics_service": {
          "status": 1
        },
        "appinvite_service": {
          "status": 2,
          "other_platform_oauth_client": [
            {
              "client_id": "1003804154726-a7g147p2stu3qupvb3tg5jjek1ukh2c6.apps.googleusercontent.com",
              "client_type": 3
            },
            {
              "client_id": "1003804154726-087j7fvffbppf79kc1h978t7a5spegf0.apps.googleusercontent.com",
              "client_type": 2,
              "ios_info": {
                "bundle_id": "com.aita.app",
                "app_store_id": "527299553"
              }
            }
          ]
        },
        "ads_service": {
          "status": 2
        }
      }
    }
  ],
  "configuration_version": "1"
}